%YAML 1.1
%TAG !u! tag:unity3d.com,2011:
--- !u!114 &11400000
MonoBehaviour:
  m_ObjectHideFlags: 0
  m_CorrespondingSourceObject: {fileID: 0}
  m_PrefabInternal: {fileID: 0}
  m_GameObject: {fileID: 0}
  m_Enabled: 1
  m_EditorHideFlags: 0
  m_Script: {fileID: 11500000, guid: 4d10323487cb44348b830bc017eb40b4, type: 3}
  m_Name: SteamVR_Input_References
  m_EditorClassIdentifier: 
  actionSetNames:
  - _default
  - platformer
  - buggy
  actionSetObjects:
  - {fileID: 11400000, guid: fd4ba089d42ad144c82f60edd3db2434, type: 2}
  - {fileID: 11400000, guid: ee09809f509f50347b5fd11576ded333, type: 2}
  - {fileID: 11400000, guid: 80c759c5ef521fc478b24e0ba81abd9b, type: 2}
  actionNames:
  - __actions_default_in_InteractUI
  - __actions_default_in_Teleport
  - __actions_default_in_GrabPinch
  - __actions_default_in_GrabGrip
  - __actions_default_in_Pose
  - __actions_default_in_SkeletonLeftHand
  - __actions_default_in_SkeletonRightHand
  - __actions_default_in_Squeeze
  - __actions_default_out_Haptic
  - __actions_platformer_in_Move
  - __actions_platformer_in_Jump
  - __actions_buggy_in_Steering
  - __actions_buggy_in_Throttle
  - __actions_buggy_in_Brake
  - __actions_buggy_in_Reset
  actionObjects:
  - {fileID: 11400000, guid: 65dd7eed93df9ce4e83e472613a604f3, type: 2}
  - {fileID: 11400000, guid: 73e2a642d04c706428c899c5c2b1181a, type: 2}
  - {fileID: 11400000, guid: 30dda71bb21698442b5ee9f6ddf0b4dc, type: 2}
  - {fileID: 11400000, guid: b1cd828382b3bc04283e11f8291fbbc3, type: 2}
  - {fileID: 11400000, guid: 54d7055c28f25d4429ca4cb3419c1cf2, type: 2}
  - {fileID: 11400000, guid: 60ca0d4e6e1c9c941b25e8869d48033c, type: 2}
  - {fileID: 11400000, guid: 5e86477b17641654493fe0c83f1cf506, type: 2}
  - {fileID: 11400000, guid: 86c95d4b5dc9b194294e83304ba1a242, type: 2}
  - {fileID: 11400000, guid: b48a47faa4fbfd3438b76329fa5fc6fc, type: 2}
  - {fileID: 11400000, guid: 94ed2cc81a28a47439e560460ca864e1, type: 2}
  - {fileID: 11400000, guid: 7eeac3bd8288b76478932e179627a84e, type: 2}
  - {fileID: 11400000, guid: 3c0b0c2de1528c84dbc56c61fa5cce4c, type: 2}
  - {fileID: 11400000, guid: 8f34afc001e97bc4185026d1a3f15523, type: 2}
  - {fileID: 11400000, guid: 4c1ef91f8df2dde4e897551426652050, type: 2}
  - {fileID: 11400000, guid: 4941cd6196b8f5241947f79a84a65d5f, type: 2}
