%YAML 1.1
%TAG !u! tag:unity3d.com,2011:
--- !u!114 &11400000
MonoBehaviour:
  m_ObjectHideFlags: 0
  m_CorrespondingSourceObject: {fileID: 0}
  m_PrefabInternal: {fileID: 0}
  m_GameObject: {fileID: 0}
  m_Enabled: 1
  m_EditorHideFlags: 0
  m_Script: {fileID: 11500000, guid: 640f5aa82bb9c714696f842cb8727241, type: 3}
  m_Name: __actions_default_in_Pose
  m_EditorClassIdentifier: 
  changeTolerance: 0.000001
  fullPath: /actions/default/in/Pose
  actionSet: {fileID: 11400000, guid: 4e2b4319013857244b251d446b101c4d, type: 2}
  direction: 0
